<?xml version="1.0" encoding="utf-8"?>
<!-- Generator: Adobe Illustrator 22.0.1, SVG Export Plug-In . SVG Version: 6.00 Build 0)  -->
<svg version="1.1" id="Layer_1" xmlns="http://www.w3.org/2000/svg" xmlns:xlink="http://www.w3.org/1999/xlink" x="0px" y="0px"
	 viewBox="0 0 99 78" style="enable-background:new 0 0 99 78;" xml:space="preserve">
<style type="text/css">
	.st0{fill:#FFFFFF;}
</style>
<g>
	<path class="st0" d="M87.86,19.73l-2.39-1.59l-0.44,0.09l2.74,2.03c4.86,3.62,8.13,9.55,8.13,16.18
		c0,15.65-21.39,31.73-45.61,31.73C24.66,68.17,7.6,54.2,7.6,38.2c0-19.71,22.54-34.92,48.18-34.92c10.08,0,17.41,1.59,26.52,5.75
		l5.04,2.3l-0.18-0.53l-4.51-2.48c-8.22-4.51-16.53-6.54-28.29-6.54c-28.73,0-52.77,17.68-52.77,40.31
		c0,9.63,4.51,17.24,13.26,23.51c9.02,6.45,21.75,10.61,34.47,10.61c24.4,0,48.09-18.21,48.09-37.92
		C97.41,30.43,93.7,23.62,87.86,19.73z"/>
	<path d="M54.98,28.31V26.1h-2.83v24.93h3.27V31.14c1.68-1.4,2.65-1.63,2.65-1.59v-3.71C56.06,26.84,54.98,28.31,54.98,28.31z
		 M25.81,30.69v-4.24c0-1.86,0.8-2.92,1.94-2.92c1.24,0,1.86,1.06,1.86,3.01v4.24h3.89v-4.15c0-4.24-2.03-7.07-5.66-7.07
		c-3.36,0-5.92,2.83-5.92,6.28v5.83c0,6.36,7.78,5.66,7.78,11.14v4.42c0,1.95-0.26,2.65-1.77,2.65c-1.77,0-2.3-0.97-2.3-2.74V42.1
		h-3.71v5.13c0,3.89,2.48,6.72,6.01,6.72c3.27,0,5.66-2.48,5.66-6.19v-7.69C33.59,35.73,25.81,33.7,25.81,30.69z M42.69,25.66
		c-3.01,0-4.86,2.12-4.86,5.48v14.59c0,3.8,1.86,6.19,5.13,6.19c2.74,0,4.42-1.77,4.42-4.69v-4.42h-3.01v3.18
		c0,1.59-0.18,2.12-1.59,2.12c-1.15,0-1.5-0.8-1.5-2.21v-6.45h6.36v-8.13C47.64,27.61,45.79,25.66,42.69,25.66z M44.21,36.36h-2.92
		v-5.13c0-1.24,0.44-1.86,1.41-1.86c1.06,0,1.5,0.35,1.5,1.24V36.36z M75.75,25.04c-2.56,0-4.77,2.12-4.77,4.6v3.89h3.09v-2.65
		c0-1.5,0.8-2.21,1.68-2.21c1.06,0,1.59,0.44,1.59,1.59v6.98l-0.97-0.44c-0.71-0.35-1.41-0.44-1.95-0.44c-2.3,0-3.53,1.94-3.53,4.07
		v6.36c0,3.01,0.62,4.42,2.56,4.42c0.88,0,1.68-0.27,2.74-1.15l1.24-0.97v1.68h3.18V29.64C80.61,27.16,78.32,25.04,75.75,25.04z
		 M77.35,46.16c-0.18,0.53-0.8,1.15-1.68,1.15c-0.8,0-1.59-0.8-1.59-2.21v-3.89c0-1.06,0.53-1.59,1.5-1.59
		c1.33,0,1.77,0.71,1.77,2.12V46.16z M65.68,19.29h-3.09v6.81H60.9v3.09h1.77v21.83h3.18V29.19h1.86V26.1h-2.03V19.29z"/>
	<path d="M93.67,61.88c0-0.63-0.42-0.83-1.13-0.83h-1.03v2.75h0.59v-1.16h0.28l0.64,1.16h0.7l-0.7-1.2
		C93.37,62.57,93.67,62.39,93.67,61.88z M92.62,62.18H92.1v-0.66h0.41c0.22,0,0.53,0.02,0.53,0.3
		C93.04,62.13,92.88,62.18,92.62,62.18z M92.53,59.88c-1.36,0-2.57,0.94-2.57,2.56c0,1.62,1.21,2.56,2.57,2.56
		c1.35,0,2.56-0.94,2.56-2.56C95.09,60.82,93.88,59.88,92.53,59.88z M92.53,64.4c-1.01,0-1.83-0.79-1.83-1.97
		c0-1.18,0.82-1.96,1.83-1.96c0.99,0,1.83,0.78,1.83,1.96C94.35,63.61,93.51,64.4,92.53,64.4z"/>
</g>
</svg>
