<?xml version="1.0" encoding="utf-8"?>
<!-- Generator: Adobe Illustrator 22.0.1, SVG Export Plug-In . SVG Version: 6.00 Build 0)  -->
<svg version="1.1" id="logos" xmlns="http://www.w3.org/2000/svg" xmlns:xlink="http://www.w3.org/1999/xlink" x="0px" y="0px"
	 viewBox="0 0 93.3 49" style="enable-background:new 0 0 93.3 49;" xml:space="preserve">
<style type="text/css">
	.st0{fill:#FFFFFF;}
	.st1{fill:#050505;}
	.st2{fill-rule:evenodd;clip-rule:evenodd;fill:#050505;}
	.st3{fill-rule:evenodd;clip-rule:evenodd;fill:#D32323;}
</style>
<path class="st0" d="M89,25.5l-0.2-0.1c0,0,2.3-0.5,3.3-2.7c0.6-1.3,0.6-2.8,0.1-4.1c-1-2.3-2.4-4.2-4.3-5.9
	c-0.9-0.8-2.1-1.2-3.3-1.3c-3,0-4.3,2.4-4.3,2.4l0-8.2c0-2.8-2.2-5-5-5c-1.2,0-3.4,0.4-4.9,0.8c-1.5,0.4-2.9,0.9-4.3,1.6
	c-1.3,0.6-2.2,1.7-2.6,3c-0.4,1.3-0.3,2.8,0.4,4l4.1,7.1c0,0-1-0.6-2.4-0.6c-2.2,0-4.1,1.4-4.8,3.4C61.1,20,61,20.2,61,20.3
	c-0.7-0.6-1.4-1.2-2.4-1.6c-1.3-0.6-2.8-0.9-4.2-0.9c-1.1,0-2.2,0.2-3.2,0.6c-0.8-0.4-1.6-0.6-2.5-0.6c-1.3,0-2.5,0.4-3.4,1.2v-1
	c0-3-2.4-5.4-5.4-5.4c-3,0-5.4,2.4-5.4,5.4v3c-2-2.1-4.7-3-7.2-3c-1.8,0-4.3,0.6-6.3,2.3c-0.7-1-1.7-1.7-2.8-2
	c-0.5-0.2-1.1-0.2-1.6-0.2c-2.4,0-4.5,1.5-5.2,3.8l-0.2,0.7l-0.7-1.5c-1-2.2-4.1-4-7.3-2.5c-1.3,0.6-2.3,1.7-2.8,3.1
	s-0.4,2.9,0.3,4.2l5.2,10.6c-1.5,0.6-2.7,1.8-3.1,3.5c-0.5,1.6-0.2,3.3,0.8,4.6c0.8,1,2.2,2.3,5,2.3c0.1,0,0.2,0,0.3,0
	c3.9,0,6.8-1.9,7.9-5.3c0.4-1.4,1-3,1.5-4.7c0.1,0.2,0.2,0.4,0.3,0.6c1.7,3.2,4.8,5,8.7,5c3.7,0,6.3-1.3,7.9-2.9
	c0.9,1.7,2.7,2.8,4.7,2.8c1.3,0,2.5-0.4,3.4-1.2v1c0,3,2.4,5.4,5.4,5.4c2.9,0,5.3-2.3,5.4-5.3c0,0,4.2,0.2,7-2.7
	c0.3-0.3,0.8-0.8,1.3-1.7c0.7,0.4,1.4,0.6,2.2,0.6c0.7,0,1.3-0.1,1.8-0.4c0.3,0.4,0.7,0.7,1.1,1c2,1.4,4.3,2.3,6.7,2.7
	c0.3,0,0.6,0.1,0.8,0.1c2.7,0,4.9-2.1,5-4.8l0-0.2l0.1,0.1c0.9,1.5,2.5,2.4,4.3,2.4c1.2,0,2.3-0.4,3.2-1.1c1.9-1.5,3.4-3.5,4.4-5.7
	c0.6-1.3,0.7-2.8,0.1-4.1C91.5,26.9,90.4,25.9,89,25.5z"/>
<path class="st1" d="M64.5,32.8c0.6,0,1.1,0.5,1.1,1.1c0,0.6-0.5,1.1-1.1,1.1c-0.6,0-1.1-0.5-1.1-1.1C63.5,33.2,64,32.8,64.5,32.8z
	 M64.5,34.8c0.5,0,0.9-0.4,0.9-0.9c0-0.5-0.4-0.9-0.9-0.9c-0.5,0-0.9,0.4-0.9,0.9C63.7,34.4,64.1,34.8,64.5,34.8z M64.2,33.2h0.5
	c0.3,0,0.4,0.1,0.4,0.4c0,0.2-0.1,0.3-0.3,0.3l0.4,0.5h-0.2l-0.3-0.5h-0.2v0.5h-0.2V33.2z M64.3,33.8h0.2c0.2,0,0.3,0,0.3-0.2
	c0-0.2-0.1-0.2-0.3-0.2h-0.3V33.8z"/>
<path class="st2" d="M41.7,36.8c0,1.1-0.9,1.9-1.9,1.9c-1.1,0-1.9-0.9-1.9-1.9V17.9c0-1.1,0.9-1.9,1.9-1.9c1.1,0,1.9,0.9,1.9,1.9
	V36.8z"/>
<path class="st1" d="M25.3,31.5l6.8,0c0,0,0.1,0,0.1,0c0.9-0.1,1.8-0.9,1.9-2.1c0,0,0,0,0,0c0,0,0-0.1,0-0.1c-0.3-7-4.8-8-6.8-8
	c-2.1,0-6.9,1.2-6.9,9c0,2.9,0.7,8.5,6.8,8.5c5.3,0,6.5-3,6.5-3.8c0-1.1-1-2.1-2-1.8c-0.9,0.3-2.1,2-4,2c-2.8,0-3.1-2.5-3.1-3.1
	C24.4,31.7,24.7,31.6,25.3,31.5z M24.4,28.1c0.1-2.6,2.1-3.1,3-3.1c0.9,0,2.9,0.4,3,3.1c0,0.1-0.1,0.2-0.2,0.2h-5.7
	C24.5,28.4,24.4,28.3,24.4,28.1z"/>
<path class="st1" d="M9.6,36.4L3.7,24.2c-0.5-1-0.1-2.1,0.9-2.6c1-0.5,2.1-0.1,2.6,0.9l4.6,9.4l2.8-9.2c0.3-1,1.4-1.6,2.4-1.3
	c1,0.3,1.6,1.4,1.3,2.4c0,0-3.2,10.4-5.1,16.4c-0.6,2-2.3,3-4.8,2.9c-2.5-0.1-2.8-1.5-2.6-2.5c0.3-1.1,1.2-1.4,2-1.4
	C10.2,39.4,10.5,38,9.6,36.4z"/>
<path class="st1" d="M60.5,29.3c0-2.5-0.3-5.9-3.5-7.4c-1.8-0.8-4-0.8-5.7,0.1c-0.3,0.2-0.7,0.4-1,0.6c-0.2-0.8-1-1.5-1.8-1.5
	c-1.1,0-1.9,0.9-1.9,1.9V42c0,1.1,0.9,1.9,1.9,1.9c1.1,0,1.9-0.9,1.9-1.9v-5c0,0,1.3,1.6,3.3,1.6C61.1,38.8,60.6,31,60.5,29.3z
	 M56.8,30.7c0,1.5,0,4.2-2.7,4.2c-2.7,0-2.7-2.7-2.7-4.2v-1.4c0-1.5,0-4.2,2.7-4.2c2.7,0,2.7,2.7,2.7,4.2V30.7z"/>
<path class="st3" d="M66.5,20.1l6.6,3.2c1.3,0.6,1.1,2.5-0.3,2.8L65.7,28c-0.9,0.2-1.8-0.4-1.9-1.3c-0.2-2,0-3.9,0.6-5.7
	C64.7,20.1,65.7,19.7,66.5,20.1z"/>
<path class="st3" d="M69.2,33.8l4.9-5.5c1-1.1,2.7-0.3,2.7,1.1l-0.3,7.4c0,0.9-0.9,1.6-1.8,1.5c-1.9-0.3-3.7-1.1-5.3-2.1
	C68.7,35.6,68.6,34.5,69.2,33.8z"/>
<path class="st3" d="M80.9,26.5l7,2.3c0.9,0.3,1.3,1.3,0.9,2.1c-0.8,1.7-2,3.3-3.5,4.5c-0.7,0.6-1.8,0.4-2.3-0.4l-3.9-6.3
	C78.4,27.5,79.6,26,80.9,26.5z"/>
<path class="st3" d="M88.1,22L81,24c-1.4,0.4-2.5-1.1-1.7-2.3l4.1-6.1c0.5-0.8,1.6-0.9,2.3-0.3c1.4,1.3,2.6,2.8,3.4,4.6
	C89.4,20.8,89,21.7,88.1,22z"/>
<path class="st3" d="M71.5,4.8c-1.3,0.3-2.5,0.8-3.7,1.3c-0.8,0.4-1.1,1.4-0.7,2.1l6.9,12c0.8,1.4,2.8,0.8,2.8-0.8l0-13.9
	c0-0.9-0.8-1.6-1.6-1.5C74,4.2,72.7,4.4,71.5,4.8z"/>
</svg>
