<?xml version="1.0" encoding="utf-8"?>
<!-- Generator: Adobe Illustrator 22.0.1, SVG Export Plug-In . SVG Version: 6.00 Build 0)  -->
<svg version="1.1" id="Layer_1" xmlns="http://www.w3.org/2000/svg" xmlns:xlink="http://www.w3.org/1999/xlink" x="0px" y="0px"
	 viewBox="0 0 36.2 33.7" style="enable-background:new 0 0 36.2 33.7;" xml:space="preserve">
<style type="text/css">
	.st0{fill-rule:evenodd;clip-rule:evenodd;fill:#E8E217;}
</style>
<path class="st0" d="M18.2,0.2l5.9,10.5L36,13l-8.3,8.7l1.5,11.9l-11-5.1l-11,5.1l1.5-11.9L0.4,13l11.9-2.3L18.2,0.2"/>
</svg>
