<?xml version="1.0" encoding="utf-8"?>
<!-- Generator: Adobe Illustrator 22.0.1, SVG Export Plug-In . SVG Version: 6.00 Build 0)  -->
<svg version="1.1" id="Layer_1" xmlns="http://www.w3.org/2000/svg" xmlns:xlink="http://www.w3.org/1999/xlink" x="0px" y="0px"
	 viewBox="0 0 432 314.8" style="enable-background:new 0 0 432 314.8;" xml:space="preserve">
<style type="text/css">
	.st0{fill-rule:evenodd;clip-rule:evenodd;fill:#4160A1;}
</style>
<path class="st0" d="M362,3.5H71C33.2,3.5,2.5,34.2,2.5,72v106.1c0,37.8,30.7,68.5,68.5,68.5h234.2l-15,65l52-65H362
	c37.8,0,68.5-30.6,68.5-68.5V72C430.5,34.2,399.8,3.5,362,3.5z"/>
</svg>
